EDA Project 1
…
#mean and standard deviation of total number of mental health providers grouped by state
mhp_homeless %>% group_by(State) %>% summarize(mean=mean(number_mhp),sd=sd(number_mhp))

## # A tibble: 2 x 3
##   State       mean    sd
##   <chr>      <dbl> <dbl>
## 1 California 3393. 6128.
## 2 New York   1177. 2686.

#new variable of mental health providers to homeless individuals ratio
mhp_homeless %>% mutate(mhp_homeless_ratio=number_mhp/total_homeless) %>% 
  select(State,County,total_homeless,number_mhp,mhp_homeless_ratio) %>%
  arrange(desc(mhp_homeless_ratio))

## # A tibble: 54 x 5
##    State      County     total_homeless number_mhp mhp_homeless_ratio
##    <chr>      <chr>               <dbl>      <dbl>              <dbl>
##  1 California Santa Cruz            138       1938              14.0 
##  2 New York   Rockland              117        822               7.03
##  3 New York   Chautauqua             29        192               6.62
##  4 New York   Tompkins               88        355               4.03
##  5 New York   Monroe                762       1868               2.45
##  6 California Napa                  293        702               2.40
##  7 New York   Jefferson              86        206               2.40
##  8 California El Dorado             269        588               2.19
##  9 New York   Cattaragus             41         86               2.10
## 10 New York   Dutchess              375        783               2.09
## # … with 44 more rows

#counties that have more mental health providers than homeless individuals
mhp_homeless %>% mutate(mhp_homeless_ratio=number_mhp/total_homeless) %>% select(State,County,total_homeless,number_mhp,mhp_homeless_ratio) %>% filter(mhp_homeless_ratio>=1.0)

## # A tibble: 33 x 5
##    State      County         total_homeless number_mhp mhp_homeless_ratio
##    <chr>      <chr>                   <dbl>      <dbl>              <dbl>
##  1 California San Mateo                1483       2705               1.82
##  2 California Yolo                      498        728               1.46
##  3 California El Dorado                 269        588               2.19
##  4 California Fresno                   1722       3075               1.79
##  5 California Marin                    1318       1895               1.44
##  6 California Napa                      293        702               2.40
##  7 California Riverside                2372       4540               1.91
##  8 California San Bernardino           2149       4487               2.09
##  9 California San Diego                8742      11268               1.29
## 10 California San Francisco            6556       7656               1.17
## # … with 23 more rows

#the proportion of the total homeless population made up by veterans and youth under 25
mhp_homeless %>% select(State,County,total_homeless,veterans,youth_under25) %>%
 mutate(vet_youth_number=veterans+youth_under25) %>% mutate(vet_youth_number/total_homeless)

## # A tibble: 54 x 7
##    State County total_homeless veterans youth_under25 vet_youth_number
##    <chr> <chr>           <dbl>    <dbl>         <dbl>            <dbl>
##  1 Cali… Amador            430       47            35               82
##  2 Cali… Colusa            136       10             4               14
##  3 Cali… San M…           1483      183            44              227
##  4 Cali… Yolo              498       44            45               89
##  5 Cali… El Do…            269       20            17               37
##  6 Cali… Fresno           1722      227           136              363
##  7 Cali… Humbo…           1180      145           116              261
##  8 Cali… Imper…            554        8            21               29
##  9 Cali… Lake              315       21             6               27
## 10 Cali… Los A…          41174     4016          2670             6686
## # … with 44 more rows, and 1 more variable:
## #   `vet_youth_number/total_homeless` <dbl>

#which counties have the highest proportion of veteran and youth homelessness 
mhp_homeless %>% select(State,County,total_homeless,veterans,youth_under25) %>%
 mutate(vet_youth_number=veterans+youth_under25) %>% mutate(prop=vet_youth_number/total_homeless) %>% arrange(desc(prop))

## # A tibble: 54 x 7
##    State   County   total_homeless veterans youth_under25 vet_youth_number  prop
##    <chr>   <chr>             <dbl>    <dbl>         <dbl>            <dbl> <dbl>
##  1 New Yo… Yates               187       35            36               71 0.380
##  2 Califo… San Lui…           1515      130           394              524 0.346
##  3 Califo… Marin              1318       66           367              433 0.329
##  4 Califo… San Fra…           6556      557          1473             2030 0.310
##  5 Califo… Sonoma             3097      215           678              893 0.288
##  6 Califo… Yuba                716      113            66              179 0.25 
##  7 New Yo… Cattara…             41        1             9               10 0.244
##  8 Califo… San Die…           8742     1381           625             2006 0.229
##  9 New Yo… Chenango            302        4            65               69 0.228
## 10 New Yo… Saratoga            282       40            23               63 0.223
## # … with 44 more rows
…
